[
  {
    "protocol": "${protocol}",
    "branch": "${blockHash}",
    "contents": [
      {
        "kind": "reveal",
        "source": "${source}",
        "fee": "${fee}",
        "counter": "${counter}",
        "gas_limit": "${gasLimit}",
        "storage_limit": "50000",
        "public_key": "${publicKey}"
      }
    ],
    "signature": "${signature}"
  }
]
